bloco5_AnaliseGeoespacialemR_Part2.knit
…
print(sumarizacao)

## Simple feature collection with 59 features and 5 fields
## Geometry type: GEOMETRY
## Dimension:     XY
## Bounding box:  xmin: -3886210 ymin: -801117.2 xmax: -3873528 ymax: -787963.5
## Projected CRS: WGS 84 / Pseudo-Mercator
## # A tibble: 59 × 6
##    CD_SETOR        quantidade_lojas media_faturamento faturamento_maximo
##    <chr>                      <int>             <dbl>              <dbl>
##  1 250750705000043               76           763274.            1499753
##  2 250750705000072              152           763274.            1499753
##  3 250750705000073               76           763274.            1499753
##  4 250750705000076               76           763274.            1499753
##  5 250750705000143               76           763274.            1499753
##  6 250750705000144              152           763274.            1499753
##  7 250750705000149              152           763274.            1499753
##  8 250750705000162               76           763274.            1499753
##  9 250750705000163              152           763274.            1499753
## 10 250750705000168              152           763274.            1499753
## # ℹ 49 more rows
## # ℹ 2 more variables: faturamento_minimo <dbl>, geometry <GEOMETRY [m]>
…
